??,en,ru,fr,es,de,hu,cn,ar
L_LANGUAGE,English,Русский,Français,Español,Deutch,Magyar,中国,العربية
L_DIRECTION,ltr,ltr,ltr,ltr,ltr,ltr,ltr,rtl
L_DATEHOUR,%I:%M%p,%H:%M,%H:%M,%H:%M,%H:%M,%H:%M,%H:%M,%H:%M
L_DATEDAY,%d/%m,%d.%m.,%d/%m,%d/%m,%d.%m.,%m.%d.,%m-%d,%d/%m
L_DATEFULL,%d/%m/%Y %I:%M%p,%d.%m.%Y. %H:%M,%d/%m/%Y %H:%M,%d/%m/%Y %H:%M,%d.%m.%Y. %H:%M,%Y.%m.%d. %H:%M,%Y-%m-%d %H:%M,%d/%m/%Y %H:%M
L_HELP,this help,эта помощь,cette aide,esta ayuda,diese Hilfe,ez a súgó,这个帮助,هذه المساعدة
L_HELPVBSE,be verbose,быть подробным,être bavard,ser verboso,sei ausführlich,részletes kimenet,是冗长的,يكون مطولاً
L_HELPDIR,data directory,каталог данных,répertoire de données,directorio de datos,Datenverzeichnis,adatkönyvtár,数据目录,دليل البيانات
L_HELPBROY,browse only mode,режим только для просмотра,mode navigation seule,solo buscar modo,nur Durchsuchen-Modus,csak böngészés mód,仅浏览模式,تصفح وضع فقط
L_HELPWIZ,execute configuration assistant,выполнить конфигурационный помощник,exécuter l'assistant de configuration,ayuda de configuración de ejecución,Konfigurationshelfer ausführen,konfiguráló segéd indítása,执行配置帮助程序,تنفيذ مساعد التكوين
L_HELPLANG,override interface's language,переопределить язык интерфейса,remplacer la langue de l'interface,anular el idioma de la interfaz,überschreiben die Sprache,interfész nyelvének beállítása,覆盖界面的语言,تجاوز لغة واجهة
L_HELPWRDCT,write out dictionary file,выписать файл словаря,écrire le fichier du dictionnaire,escribir archivo de diccionario,schreibe Wörterbuchdatei aus,nyelvi fájl kiírása,写出字典文件,اكتب ملف القاموس
L_HELPDMN,run in the background,бежать в фоновом режиме,courir en arrière-plan,correr en el fondo,im Hintergrund laufen,háttérben futtatás,在后台运行,تشغيل في الخلفية
L_HELPURL,generate a download URL,создать URL загрузки,générer une URL de téléchargement,generar una URL de descarga,generiere eine Download-URL,fájlletöltő URL generálása,生成下载URL,قم بإنشاء عنوان URL للتنزيل
L_HELPVER,print library versions,версия для печати,versions d'impression,imprimir versiones,versionen drucken,függvénykönyvtárverziók kiírása,打印库版本,إصدارات مكتبة الطباعة
L_HELPNOTB,notify the buyer,уведомлять покупателя,notifier l'acheteur,notificar al comprador,benachrichtigen den Käufer,a vevő értesítése,通知买家,إخطار المشتري
L_HELPNOTS,notify the seller,уведомить продавца,informer le vendeur,notificar al vendedor,benachrichtigen den Verkäufer,az eladó értesítése,通知卖家,اخبر البائع
L_HELPDOWN,"This market is a decentralized peer to peer network. It's application is distributed as a single executable binary, no installation required.","Этот рынок является децентрализованной сетью одноранговых сетей. Это приложение распространяется как один исполняемый двоичный файл, не требуется установка.","Ce marché est un réseau d'égal à égal décentralisé. Son application est distribuée comme un seul binaire exécutable, aucune installation requise.","Este mercado es una red descentralizada de igual a igual. Su aplicación se distribuye como un único binario ejecutable, no requiere instalación.","Dieser Markt ist ein dezentrales Peer-to-Peer-Netzwerk. Seine Anwendung wird als einzelne ausführbare Binärdatei verteilt, keine Installation erforderlich.","Ez a piac egy decentralizált pont-pont hálózat. Az alkalmazása egyetlen futtatható fájl formájában kerül terjesztésre, nincs szükség telepítésre.",这个市场是一个分散的点对点网络。它的应用程序作为单个可执行二进制文件分发，无需安装。,هذا السوق هو شبكة نظير إلى نظير لامركزية. يتم توزيع التطبيق كوثيقة ثنائية قابلة للتنفيذ ، دون الحاجة إلى تركيب.
L_HELPCONF,"When the configurator asks for a 'bootstrap node', enter one of these","Когда конфигуратор запрашивает «загрузочный узел», введите один из этих","Lorsque le configurateur demande un ""nœud d’amorçage"", entrez l’un de ces","Cuando el configurador solicite un 'nodo de inicio', ingrese uno de estos","Wenn der Konfigurator nach einem 'Boot-Knoten' fragt, geben Sie einen von diesen ein","Amikor a konifugráló a 'kályha gép'-et kérdezi, ezek közül az egyiket kell beírni",当配置程序请求“引导节点”时，请输入其中一个,عندما يطلب المكوِّن 'عقدة تمهيد' ، أدخل أحدها
L_NEWVER,New version is available!,Доступна новая версия!,La nouvelle version est disponible!,¡Nueva versión disponible!,Neue Version ist verfügbar!,Új verzió elérhető!,新版本可用！,النسخة الجديدة متاحة!
L_NODIR,Unable to find data directory,Не удается найти каталог данных,Impossible de trouver le répertoire de données,No se puede encontrar el directorio de datos,Das Datenverzeichnis konnte nicht gefunden werden,Nem találom az adatkönyvtárat,无法找到数据目录,غير قادر على العثور على دليل البيانات
L_WRERR,Unable to write file,Не удалось записать файл,Impossible d'écrire le fichier,No se puede escribir el archivo,Datei konnte nicht geschrieben werden,Nem tudom írni a fájlt,无法写入文件,غير قادر على كتابة الملف
L_CHLDERR,Child (%d) is already running,Ребенок (%d) уже работает,L'enfant (%d) est déjà en cours d'exécution,El niño (%d) ya está corriendo,Kind (%d) läuft bereits,A gyerekprocessz (%d) már fut,儿童（%d）已经在运行,الطفل (%d) قيد التشغيل بالفعل
L_CONFWIZ,Configuration Assistant,Помощник по настройке,Assistant de configuration,Asistente de configuración,Konfigurationshelfer,Konfiguráló Segéd,配置助手,مساعد التكوين
L_CONFDIR,Data Directory,Каталог данных,Répertoire de données,Directorio de datos,Datenverzeichnis,Adatkönyvtár,数据目录,دليل البيانات
L_DATADIRS,Create one of these directories,Создайте один из этих каталогов,Créez l'un de ces répertoires,Crea uno de estos directorios.,Erstellen Sie eines dieser Verzeichnisse,Hozd létre valamelyik könyvtárat,创建其中一个目录,قم بإنشاء أحد هذه الأدلة
L_DETDIR,Detected data directory,Обнаруженный каталог данных,Répertoire de données détectées,Directorio de datos detectados,Erkanntes Datenverzeichnis,Detektált könyvtár,检测到的数据目录,دليل البيانات التي تم اكتشافها
L_ASKCORR,Correct,Правильный,Correct,¿Correcto,Richtig,Helyes,正确,صيح
L_YES,yes,да,oui,sí,ja,igen,是,نعم فعلا
L_NO,no,нет,non,no,nein,nem,没有,لا
L_NONE,none,никто,aucun,ninguna,keiner,nincs,没有,لا شيء
L_CONFDMN,Daemon,Демон,Démon,Demonio,Dämon,Démon,守护进程,الشيطان
L_LISPORT,Listening port,Порт прослушивания,Port d'écoute,Puerto de escucha,Hörender Hafen,Melyik porton hallgatózzon,听力口,ميناء الاستماع
L_CONFANON,Anonymizer Proxies,Анонимайзер,Anonymiseur Proxies,Proxies Anonimizador,Anonymizer,Anonimizáló proxik,匿名者,الموصوف
L_TORNODE,Tor node name,Название узла Tor,Nom du noeud Tor,Nombre del nodo tor,Tor-Knotenname,Tor név,Tor节点名称,اسم عقدة تور
L_TORDESC,"You'll find this in HiddenServiceDir, in the file named hostname. Ends in '.onion'.",Вы найдете это в HiddenServiceDir в файле с именем hostname. Заканчивается на «.onion».,"Vous le trouverez dans HiddenServiceDir, dans le fichier nommé hostname. Se termine par '.onion'.","Encontrará esto en HiddenServiceDir, en el archivo llamado nombre de host. Termina en '.onion'.",Sie finden dies in HiddenServiceDir in der Datei mit dem Namen hostname. Endet in '.onion'.,"Ezt a HiddenServiceDir mappában, a hostname nevű fájlban találod. '.onion'-ra végződik.",您可以在名为hostname的文件中的HiddenServiceDir中找到它。以“.onion“结尾。,ستجد هذا في HiddenServiceDir ، في الملف المسمى hostname. ينتهي في '.onion'.
L_I2PNODE,I2P node name,Имя узла I2P,Nom du noeud I2P,Nombre de nodo I2P,I2P-Knotenname,I2P név,I2P节点名称,I2P اسم العقدة
L_I2PDESC,"Create a Server Tunnel, and look for 'Local Destination', or grep i2pd log. Ends in '.b32.i2p'.",Создайте серверный туннель и найдите «Local Destination» или журнал grep i2pd. Заканчивается на «.b32.i2p».,Créez un tunnel de serveur et recherchez la «destination locale» ou le journal grep i2pd. Se termine par '.b32.i2p'.,Cree un túnel de servidor y busque 'Destino local' o el registro grep i2pd. Termina en '.b32.i2p'.,Erstellen Sie einen Server Tunnel und suchen Sie nach 'Local Destination' oder grep i2pd log. Endet in '.b32.i2p'.,"Hozz létre egy Server Tunnel-t, és nézd meg a 'Local Destination' mezőjét, vagy keresd az i2pd logban. '.b32.i2p'-re végződik.",创建服务器隧道，并查找“Local Destination”或grep i2pd日志。结尾于“.b32.i2p“。,قم بإنشاء نفق Server ، وابحث عن سجل 'Local Destination' أو grep i2pd. ينتهي في '.b32.i2p'.
L_CONFPM,Payment Gateways,Платежные шлюзы,Passerelles de paiement,Via de pago,Zahlungsgateways,Fizetési Útvonalak,支付网关,بوابات الدفع
L_PMHELP0,You'll find these parameters in ~/.bitcoin/bitcoin.conf file.,Эти параметры вы найдете в файле ~/.bitcoin/bitcoin.conf.,Vous trouverez ces paramètres dans le fichier ~/.bitcoin/bitcoin.conf.,Encontrará estos parámetros en el archivo ~/.bitcoin/bitcoin.conf.,Sie finden diese Parameter in der Datei ~/.bitcoin/bitcoin.conf.,Ezeket a beállításokat a ~/.bitcoin/bitcoin.conf-ban találod.,您可以在~/.bitcoin/bitcoin.conf文件中找到这些参数。,ستجد هذه المعلمات في ملف ~/.bitcoin/bitcoin.conf.
L_CONFREM,Remote Access,Удаленный доступ,Accès à distance,Acceso remoto,Fernzugriff,Távoli elérés,远程访问,الوصول عن بعد
L_TOKDESC,You will be asked for this token on the login form when you access your node remotely.,Вы будете запрашивать этот токен в форме входа при удаленном доступе к вашему узлу.,Ce jeton vous sera demandé sur le formulaire de connexion lorsque vous accédez à votre nœud à distance.,Se le solicitará este token en el formulario de inicio de sesión cuando acceda a su nodo de forma remota.,"Sie werden nach diesem Token auf dem Anmeldeformular gefragt, wenn Sie remote auf Ihren Knoten zugreifen.","Ezt a tokent bejelentkezéskor kell megadnod, amikor távolról éred el a nodeot.",远程访问节点时，将在登录表单上要求您提供此令牌。,سيُطلب منك إدخال هذا الرمز المميز في نموذج تسجيل الدخول عند الوصول إلى العقدة عن بُعد.
L_CONFP2P,Peer to Peer Network,Одноранговая сеть,Réseau d'égal à égal,Red de igual a igual,Peer-to-Peer-Netzwerk,Elosztott hálózat,点对点网络,شبكة الند للند
L_BSPNODE,Bootstrap node,Загрузочный узел,Nœud d’amorçage,Nodo de inicio,Boot-Knoten,Kályha gép,引导节点,عقدة التمهيد
L_BSPDESC,"If you have configured Tor, then a node name ending in '.onion', with I2P a name ending in '.b32.i2p'. Can be any active peer node you may find on a DN forum, in format 'nodename:port'.","Если вы сконфигурировали Tor, то имя узла заканчивается на «.onion», а I2P - на имя «.b32.i2p». Может быть любым активным узлом-узлом, который вы можете найти на форуме DN, в формате «nodename:port».","Si vous avez configuré Tor, un nom de nœud se terminant par '.onion', avec I2P un nom se terminant par '.b32.i2p'. Peut être n'importe quel nœud homologue actif que vous pouvez trouver sur un forum DN, au format 'nom de nœud:port'.","Si ha configurado Tor, entonces un nombre de nodo que termina en '.onion', con I2P un nombre que termina en '.b32.i2p'. Puede ser cualquier nodo de par activo que pueda encontrar en un foro de DN, en formato 'nombre de nodo:puerto'.","Wenn Sie Tor konfiguriert haben, dann ein Knotenname, der auf '.onion' endet, wobei I2P mit '.b32.i2p' endet. Kann ein aktiver Peer-Knoten sein, den Sie in einem DN-Forum finden, im Format 'nodename:port'.","Ha Tor-t konfiguráltál, akkor '.onion'-ra végződik, I2P-nél '.b32.i2p'-re. Bármelyik hálózatbeli gép megteszi, amit a DN fórumokon találsz, 'gépnév:port' formátumban.",如果已配置Tor，则节点名称以“.onion”结尾，其中I2P的名称以“.b32.i2p”结尾。可以是您在DN论坛上找到的任何活动对等节点，格式为“nodename:port”。,إذا قمت بتكوين Tor ، فسيتم إنهاء اسم العقدة بـ '.onion' ، مع إنهاء I2P لاسم '.b32.i2p'. يمكن أن تكون أي عقدة نظير نشطة قد تجدها في منتدى DN ، بالتنسيق 'nodename:port'.
L_CONFERR,Error: neither Tor nor I2P configured!,"Ошибка: ни Tor, ни I2P не настроены!",Erreur: ni Tor ni I2P configurés!,Error: ni Tor ni I2P configurados!,Fehler: weder Tor noch I2P konfiguriert!,"Hiba: se Tor, se I2P nem lett konfigurálva!",错误：Tor和I2P都没有配置！,الخطأ: لم يتم تكوين Tor ولا I2P!
L_CONNERR,Unable to connect to any of the anonymizer proxies!,Не удалось подключиться к любому прокси-серверу анонимайзер!,Impossible de se connecter à l'un des mandataires d'anonymisation!,¡No se puede conectar a ninguno de los servidores proxy anónimos!,Keine Verbindung zu einem der Anonymisierungs-Proxies möglich!,Nem lehet kapcsolódni egyik anonimizáló proxyhoz sem!,无法连接到任何匿名代理！,غير قادر على الاتصال بأي من وكلاء المجهول!
L_DLPEER,Downloading peers database,Загрузка базы данных сверстников,Télécharger la base de données des pairs,Descargando la base de datos de compañeros,Peer-Datenbank herunterladen,Peers adatbázis letöltése,下载同行数据库,تنزيل قاعدة بيانات النظراء
L_ISLOCAL,This is a local market.,Это местный рынок.,C'est un marché local.,Este es un mercado local.,Dies ist ein lokaler Markt.,Ez egy helyi piac.,这是一个本地市场。,هذا هو السوق المحلية.
L_PEEROK,Peers database is up to date,База данных сверстников актуальна,La base de données des pairs est à jour,La base de datos de compañeros está actualizada,Peers-Datenbank ist auf dem neuesten Stand,Peers adatbázis naprakész,同行数据库是最新的,قاعدة بيانات النبلاء محدثة
L_OK,OK,ХОРОШО,D'ACCORD,DE ACUERDO,IN ORDNUNG,RENDBEN,好,حسنا
L_FAILED,FAILED,НЕ УДАЛОСЬ,ÉCHOUÉ,HA FALLADO,GESCHEITERT,SIKERTELEN,失败,فشل
L_CONFUSR,User Account,Учетная запись пользователя,Compte d'utilisateur,Cuenta de usuario,Benutzerkonto,Felhasználói fiók,用户帐号,حساب المستخدم
L_USERDESC,Registering new market account. Username must be URL safe.,Регистрация новой учетной записи на рынке. Имя пользователя должно быть безопасным для URL.,Enregistrement d'un nouveau compte de marché. Le nom d'utilisateur doit être sécurisé pour les URL.,Registro de nueva cuenta de mercado. El nombre de usuario debe ser URL seguro.,Registrierung eines neuen Marktkontos. Der Benutzername muss URL-sicher sein.,Új piac hozzáférés regisztrálása. A felhasználónévnek URl biztosnak kell lennie.,注册新的市场账户。 用户名必须是URL安全的。,تسجيل حساب سوق جديد. يجب أن يكون اسم المستخدم عنوان URL آمنًا.
L_USERNAME,Username,Имя пользователя,Nom d'utilisateur,Nombre de usuario,Nutzername,Felhasználónév,用户名,اسم المستخدم
L_CHKNAME,Checking username availability,Проверка доступности имени пользователя,Vérification de la disponibilité du nom d'utilisateur,Comprobando la disponibilidad del nombre de usuario,Überprüfen der Verfügbarkeit von Nutzernamen,Felhasználónév ellenőrzése,检查用户名可用性,التحقق من توافر اسم المستخدم
L_TAKEN,"Already taken, choose another one.",Выбрали еще один.,"Déjà pris, choisissez-en un autre.","Ya tomado, elige otro.","Bereits vergeben, wähle einen anderen.","Már foglalt, válassz másikat.",已经采取，选择另一个。,اتخذت بالفعل ، واختيار واحد آخر.
L_NOPEERS,No peers could be reached. Try again later.,Никаких узлов не было. Попробуйте позже.,Aucun nœud n'a pu être atteint. Réessayez plus tard.,No se pudieron alcanzar nodos. Inténtalo de nuevo más tarde.,Es konnten keine Knoten erreicht werden. Versuchen Sie es später noch einmal.,Egy gép sem válaszolt. Próbáld meg később.,无法访问节点。 稍后再试。,لا يمكن الوصول إلى عقد. حاول مرة أخرى في وقت لاحق.
L_PASSDESC,"Use upper and lowercase, numbers, symbols, at least 8 characters long. You won't see what you type. Don't forget your password! Not only used to enter the market, but also to encrypt your local files. There's no way to recover it!","Используйте верхний и нижний регистр, цифры, символы длиной не менее 8 символов. Вы не увидите, что вы набираете. Не забудьте пароль! Не только используется для входа на рынок, но и для шифрования ваших локальных файлов. Невозможно восстановить его!","Utilisez des majuscules et des minuscules, des chiffres, des symboles d'au moins 8 caractères. Vous ne verrez pas ce que vous tapez. N'oubliez pas votre mot de passe! Non seulement utilisé pour entrer sur le marché, mais aussi pour chiffrer vos fichiers locaux. Il n'y a aucun moyen de le récupérer!","Use mayúsculas y minúsculas, números, símbolos, de al menos 8 caracteres de largo. No verás lo que escribes. ¡No olvides tu contraseña! No solo se utiliza para ingresar al mercado, sino también para cifrar sus archivos locales. ¡No hay manera de recuperarlo!","Verwenden Sie Groß- und Kleinbuchstaben, Zahlen und Symbole mit einer Länge von mindestens 8 Zeichen. Du wirst nicht sehen, was du tippst. Vergiss dein Passwort nicht! Nicht nur, um den Markt zu betreten, sondern auch um Ihre lokalen Dateien zu verschlüsseln. Es gibt keine Möglichkeit, es wiederherzustellen!","Használj kis és nagybetűket, számokat, szimbólumokat, legalább 8 karakter hosszan. Nem fogod látni, amit írsz. Ne felejtsd el a jelszavad! Nemcsak a belépéshez kell, hanem ezzel lesznek titkosítva a helyi fájlaid. Nem visszaállítható!",使用大写和小写，数字，符号，至少8个字符。你不会看到你输入的内容。别忘了密码！不仅用于进入市场，还用于加密本地文件。没有办法恢复它！,استخدم الأحرف الكبيرة والصغيرة والأرقام والرموز ، 8 أحرف على الأقل. لن ترى ما تكتبه. لا تنس كلمة المرور الخاصة بك! لا يستخدم فقط لدخول السوق ، ولكن أيضا لتشفير الملفات المحلية الخاصة بك. لا توجد طريقة لاستعادتها!
L_PASS,Password,Пароль,Mot de passe,Contraseña,Passwort,Jelszó,密码,كلمه السر
L_CNFPASS,Confirm,Подтвердить,Confirmer,Confirmar,Bestätigen,Megerősítés,确认,تؤكد
L_BADPASS,Bad password!,Плохой пароль!,Mauvais mot de passe!,¡Contraseña incorrecta!,Schlechtes Passwort!,Hibás jelszó!,密码不好！,كلمة مرور سيئة!
L_KEYGEN,"Generating your keys, this could take several minutes","Создавая ваши ключи, это может занять несколько минут",La génération de vos clés peut prendre plusieurs minutes.,"Generando tus llaves, esto podría llevarte varios minutos.",Das Generieren Ihrer Schlüssel könnte einige Minuten dauern,"Kulcsok generálása, ez több percig is eltarthat",生成密钥，这可能需要几分钟,إنشاء مفاتيحك ، قد يستغرق هذا عدة دقائق
L_REGNAME,Registering user on the network,Регистрация пользователя в сети,Enregistrement d'un utilisateur sur le réseau,Registro de usuario en la red,Benutzer im Netzwerk registrieren,Felhasználó regisztrálása a hálózaton,在网络上注册用户,تسجيل المستخدم على الشبكة
L_BADUSER,Bad username or password,Плохое имя пользователя или пароль,Nom d'utilisateur ou mot de passe incorrect,Nombre de usuario o contraseña incorrectos,Falscher Benutzername oder Passwort,Hibás felhasználónév vagy jelszó,用户名或密码错误,اسم المستخدم او كلمة السر سيئة
L_USEROK,User keys found.,Найдены ключи пользователя.,Clés utilisateur trouvées.,Se encontraron claves de usuario.,Benutzerschlüssel gefunden.,Felhasználó kulcsai megvannak.,找到用户密钥。,مفاتيح المستخدم وجدت.
L_NOTFND,The requested URL was not found,Запрошенный URL не найден,L'URL demandée n'a pas été trouvée,La URL solicitada no fue encontrada,Die angeforderte URL wurde nicht gefunden,A kért URL nem található,找不到请求的URL,لم يتم العثور على عنوان URL المطلوب
L_TOKEN,Token,Знак,Jeton,Simbólico,Zeichen,Token,代币,رمز
L_LOGIN,Login,Авторизоваться,S'identifier,Iniciar sesión,Einloggen,Belépés,登录,تسجيل الدخول
L_SCAMSITE,You have landed on a SCAM site!,Вы попали на сайт мошенников!,Vous avez atterri sur un site d'arnaque!,Usted ha aterrizado en un sitio de estafa!,Du bist auf einer Betrugsseite gelandet!,Egy CSALÓ oldalt nézel!,你已经登陆了一个骗局网站！,لقد هبطت على موقع احتيال!
L_SLOGAN,"Beam me down some goodies, Scotty!","Избавь меня от сладостей, Скотти!","Transmettez-moi des friandises, Scotty!","¡Envíame algunas golosinas, Scotty!","Beamen Sie mich ein paar Leckereien, Scotty!","Sugározz le pár jó cuccot, Scotty!",给我一些好吃的东西，Scotty！,أرسل لي بعض الأشياء الجيدة ، سكوتي!
L_SSMOS,"You can purchase a secure, properly configured OS image with the market software pre-installed. Once downloaded, write the unpacked image onto an SD card or USB stick, and boot it.","Вы можете приобрести безопасный, правильно настроенный образ ОС с установленным программным обеспечением на рынке. После загрузки напишите распакованное изображение на карту SD или USB-накопитель и загрузите его.","Vous pouvez acheter une image de système d'exploitation sécurisée correctement configurée avec le logiciel du marché préinstallé. Une fois téléchargée, écrivez l'image décompressée sur une carte SD ou une clé USB, puis démarrez-la.","Puede adquirir una imagen de SO segura y correctamente configurada con el software de Market preinstalado. Una vez descargada, escriba la imagen desempaquetada en una tarjeta SD o una memoria USB, y arranque.","Mit der vorinstallierten Marktsoftware können Sie ein sicheres, ordnungsgemäß konfiguriertes Betriebssystemabbild erwerben. Nach dem Herunterladen schreiben Sie das entpackte Bild auf eine SD-Karte oder einen USB-Stick und booten es.","Vásárolhatsz egy biztonságos, megfelelően konfigurált OS lemezképet előretelepített piac szoftverrel. Miután letöltötted, írd rá kitömörítve egy SD kártyára vagy USB pendrivera, és bootolj be róla.",您可以使用预安装的市场软件购买安全，配置正确的操作系统映像。下载后，将解压缩的图像写入SD卡或USB记忆棒，然后启动它。,يمكنك شراء صورة نظام تشغيل آمنة ومهيأة بشكل صحيح باستخدام برنامج السوق المثبت مسبقًا. وبمجرد تنزيلها ، قم بكتابة الصورة التي تم تفكيكها على بطاقة SD أو عصا USB ، وقم بتمهيدها.
L_GUIDE,Guide,Руководство,Manuel,Guía,Handbuch,Kézikönyv,手册,كراسة
L_SSMG,The handbook on how to set up Escrow Services and how to configure automated order handling.,Руководство по настройке Зскроу Сервис и настройка автоматической обработки заказов.,Le manuel sur la configuration du Service d'Escroc et la configuration du traitement automatisé des commandes.,El manual sobre cómo configurar el Servicio de Fideicomiso y cómo configurar el manejo automatizado de pedidos.,Das Handbuch zur Einrichtung des Schief-Service und zur Konfiguration der automatisierten Auftragsabwicklung.,"Kézikönyv arról, hogy hogyan kell Letét Szolgáltatást beálltani és automatizált megrendeléskiszolgálást bekonfigurálni.",关于如何设置托管服务以及如何配置自动订单处理的手册。,دليل حول كيفية إعداد خدمة الضمان وكيفية تكوين معالجة النظام الآلي.
L_VNDCRT,Vendor Certificate,Сертификат Поставщика,Certificat de Vendeur,Certificado de Proveedor,Lieferantenzertifikat,Eladói Tanusítvány,供应商证书,شهادة البائع
L_SSMC,"This will allow you to sell products on the market. Once purchased and downloaded, copy to your data directory.",Это позволит вам продавать товары на рынке. После покупки и загрузки скопируйте в свой каталог данных.,"Cela vous permettra de vendre des produits sur le marché. Une fois acheté et téléchargé, copiez-le dans votre répertoire de données.","Esto le permitirá vender productos en el mercado. Una vez comprado y descargado, copie en su directorio de datos.","Dies ermöglicht Ihnen, Produkte auf dem Markt zu verkaufen. Nach dem Kauf und dem Download kopieren Sie in Ihr Datenverzeichnis.","Lehetővé teszi, hogy termékeket adj el a piacon. Miután megvásároltad és letöltötted, másold be az adatmappádba.",这将允许您在市场上销售产品。 购买并下载后，请复制到您的数据目录。,هذا سوف يسمح لك لبيع المنتجات في السوق. بمجرد شرائه وتنزيله ، انسخ إلى دليل البيانات الخاص بك.
L_CRTREQ,Selling products requires Vendor Certificate.,Для продажи продуктов требуется Сертификат Поставщика.,La vente de produits nécessite un Certificat de Vendeur.,La venta de productos requiere Certificado de Proveedor.,Der Verkauf von Produkten erfordert ein Lieferantenzertifikat.,Termékek eladásához Eladói Tanusítvány szükséges.,销售产品需要供应商证书。,بيع المنتجات يتطلب شهادة البائع.
L_DONATE,"If you like this software, please donate to","Если вам нравится это программное обеспечение, пожалуйста, пожертвуйте","Si vous aimez ce logiciel, faites un don à","Si te gusta este software, por favor dona a","Wenn Sie diese Software mögen, spenden Sie bitte an","Ha tetszik az alkalmazás, itt támogathatod",如果你喜欢这个软件，请捐赠给,إذا كنت تحب هذا البرنامج ، فالرجاء التبرع له
L_NEWMSG,Unread message(s),Непрочитанные сообщения,Message(s) non lu(s),Mensaje(s) no leído(s),Ungelesene Mitteilung(en),Olvasatlan üzenet(ek),未读消息,رسائل غير مقروءة)
L_SYNC,Synchronizing with network,Синхронизация с сетью,Synchroniser avec le réseau,Sincronización con red,Synchronisieren mit dem Netzwerk,Adatok szinkronizálása,与网络同步,تزامن مع الشبكة
L_BUY,Buy,Купить,Acheter,Comprar,Kaufen,Vétel,购买,يشترى
L_SELL,Sell,Продавать,Vendre,Vender,Verkaufen,Eladás,卖,يبيع
L_ORDERS,Orders,Заказы,Ordres,Pedidos,Aufträge,Rendelések,命令,أوامر
L_MSGS,Messages,Сообщения,Messages,Mensajes,Mitteilungen,Üzenetek,消息,رسائل
L_LOGOUT,Log Out,Выйти,Connectez-Out,Cerrar sesión.,Ausloggen,Kilép,登出,الخروج
L_DOWNLOAD,Download,Скачать,Télécharger,Descargar,Herunterladen,Letöltés,下载,تحميل
L_SOURCE,Source,Источник,La source,Fuente,Quelle,Forrás,资源,مصدر
L_FAQ,F.A.Q.,Ч.З.В.,Q.F.P.,P.M.F.,H.g.F.,GY.I.K.,常问问题。,التعليمات.
L_FORUM,Forum,Форум,Forum,Foro,Forum,Fórum,论坛,المنتدى
L_CAPTCHA,"As a protection against webcrawlers, please type in the characters that appear in this image.","В качестве защиты от веб-браузеров введите символы, которые отображаются на этом изображении.","Pour vous protéger des robots Web, veuillez saisir les caractères qui apparaissent dans cette image.","Como protección contra los webcrawlers, escriba los caracteres que aparecen en esta imagen.","Zum Schutz vor Webcrawlern geben Sie bitte die Zeichen ein, die in diesem Bild erscheinen.",A webrobotok elleni védelem érdekében kérjük másolja át a karaktereket a képről.,为防止网络机器人，请输入此图片中显示的字符。,كحماية ضد روبوتات الويب، يرجى كتابة الأحرف التي تظهر في هذه الصورة.
L_BADCAPT,Bad captcha code,Код плохой captcha,Mauvais code captcha,Bad código de captcha,Falscher Captcha-Code,Hibás captcha kód,糟糕的验证码,رمز captcha غير صحيح
L_SEARCH,Search,Поиск,Chercher,Buscar,Suche,Keresés,搜索,بحث
L_HELPMSG,"Don't assume the other party speaks your language, try English","Не предполагайте, что другая сторона говорит на вашем языке, попробуйте английский","Ne présumez pas que l'autre partie parle votre langue, essayez l'anglais","No asuma que la otra parte habla su idioma, intente inglés","Gehen Sie nicht davon aus, dass die andere Partei Ihre Sprache spricht, versuchen Sie Englisch","Ne feltételezd, hogy a másik fél beszéli a nyelved, próbálkozz az angollal",不要以为对方会说你的语言，试试英语,لا تفترض أن الطرف الآخر يتحدث لغتك ، جرب اللغة الإنجليزية
L_SENDMSG,Send Message,Отправить сообщение,Envoyer le message,Enviar mensaje,Nachricht senden,Üzenet küldés,发信息,ارسل رسالة
L_DELETE,Delete,Удалять,Effacer,Borrar,Löschen,Törlés,删除,حذف
L_ARRIVED,Arrived,Прибыли,Arrivée,Llegado,Ist eingetroffen,Érkezett,到达,وصل
L_FROM,From,От,De,Desde,Von,Feladó,从,من عند
L_TEXT,Text,Текст,Texte,Texto,Text,Szöveg,文本,نص
L_AMOUNT,Amount,Количество,Montant,Cantidad,Menge,Összeg,量,كمية
L_JUSTNOW,Just Now,Прямо сейчас,Juste maintenant,Justo ahora,Gerade jetzt,Pont most,现在,في هذة اللحظة
L_TODAY,Today,Сегодня,Aujourd'hui,Hoy,Heute,Ma,今天,اليوم
L_YSTDAY,Yesterday,Вчера,Hier,Ayer,Gestern,Tegnap,昨天,في الامس
L_WEEKDAY0,Sunday,Воскресенье,dimanche,domingo,Sonntag,Vasárnap,星期日,الأحد
L_WEEKDAY1,Monday,Понедельник,Lundi,lunes,Montag,Hétfő,星期一,الإثنين
L_WEEKDAY2,Tuesday,Вторник,Mardi,martes,Dienstag,Kedd,星期二,الثلاثاء
L_WEEKDAY3,Wendesday,Среда,Mercredi,miércoles,Mittwoch,Szerda,星期三,الأربعاء
L_WEEKDAY4,Thursday,Четверг,Jeudi,jueves,Donnerstag,Csütörtök,星期四,الخميس
L_WEEKDAY5,Friday,Пятница,Vendredi,viernes,Freitag,Péntek,星期五,يوم الجمعة
L_WEEKDAY6,Saturday,Суббота,samedi,sábado,Samstag,Szombat,星期六,يوم السبت
L_PURGEMSG,"For your safety, messages are automatically purged after %d days",Для вашей безопасности сообщения автоматически очищаются после %d дней,"Pour votre sécurité, les messages sont automatiquement supprimés au bout de %d jours.","Por su seguridad, los mensajes se eliminan automáticamente después de %d días.",Zu Ihrer Sicherheit werden Nachrichten nach %d Tagen automatisch gelöscht,A biztonság érdekében az üzenetek %d nap után automatikusan törlődnek,为了您的安全，%d天后会自动清除邮件,لحمايتك ، تتم إزالة الرسائل تلقائيًا بعد %d يومًا
L_DISCUSS,Discussion,Обсуждение,Discussion,Discusión,Diskussion,Társalgás,讨论,نقاش
L_DISPUTE,Dispute,Спор,Contestation,Disputa,Bestreiten,Vitatás,争议,خلاف
L_RECPNT,Recipient user,Пользователь-получатель,Utilisateur destinataire,Usuario receptor,Empfängerbenutzer,Címzett felhasználó,收件人用户,مستخدم مستلم
L_NORCPT,Unable to find recipient's public key,Не удалось найти открытый ключ получателя,Impossible de trouver la clé publique du destinataire,No se puede encontrar la clave pública del destinatario,Der öffentliche Schlüssel des Empfängers konnte nicht gefunden werden,A címzett publikus kulcsa nem található,无法找到收件人的公钥,غير قادر على العثور على المفتاح العام للمستلم
L_SENDESNOT,"Go ahead, type your message up to %d chars. End with Ctrl+D in a new line.","Вперед, введите свое сообщение до %d символов. Завершите с помощью Ctrl + D в новой строке.","Allez-y, tapez votre message jusqu'à %d caractères. Terminez avec Ctrl + D dans une nouvelle ligne.","Adelante, escriba su mensaje hasta %d caracteres. Termina con Ctrl + D en una nueva línea.","Fahren Sie fort, geben Sie Ihre Nachricht bis zu %d Zeichen ein. Beenden Sie mit Strg + D in einer neuen Zeile.","Írd be az üzeneted, %d karakterig. Majd üss Ctrl+D-t egy új sorban.",继续，输入最多%d个字符的消息。在新行中以Ctrl + D结束。,المضي قدما ، اكتب رسالتك تصل إلى %d الدرجات. ينتهي بـ Ctrl + D في سطر جديد.
L_SENDERR,"Network error, unable to send message","Ошибка сети, не удается отправить сообщение","Erreur réseau, impossible d'envoyer le message","Error de red, no se pudo enviar el mensaje","Netzwerkfehler, kann keine Nachricht senden","Hálózati probléma, nem sikerült az üzenet elküldése",网络错误，无法发送消息,خطأ في الشبكة ، غير قادر على إرسال الرسالة
L_SENDOK,Message delivered,Сообщение доставлено,Message délivré,Mensaje enviado,Nachricht zugestellt,Üzenet elküldve,消息传递,الرسالة وصلت
L_USEROFF,"User is currently offline, it may take some time until they receive your message","Пользователь в настоящее время отключен, это может занять некоторое время, пока оно не получит ваше сообщение","L'utilisateur est actuellement hors ligne, cela peut prendre un certain temps avant de recevoir votre message","El usuario está actualmente desconectado, puede tardar un tiempo hasta que reciba su mensaje","Der Benutzer ist derzeit offline. Es kann einige Zeit dauern, bis er Ihre Nachricht erhält","A címzett jelenleg nem elérhető, eltarthat egy darabig, míg megkapja az üzenetet",用户目前处于离线状态，可能需要一些时间才能收到您的消息,المستخدم غير متصل حاليًا ، قد يستغرق الأمر بعض الوقت حتى يتلقى رسالتك
L_LOCALONLY,LOCAL MARKET,МЕСТНЫЙ РЫНОК,MARCHÉ LOCAL,MERCADO LOCAL,LOKALER MARKT,HELYI PIAC,本地市场,السوق المحلي
L_NOTFOUND,No results found. Click on the market's name in navbar to clear filters.,"Результаты не найдены. Нажмите на название рынка в на панели навигации, чтобы очистить фильтры.",Aucun résultat trouvé. Cliquez sur le nom du marché dans la barre de navigation pour effacer les filtres.,No se han encontrado resultados. Haga clic en el nombre del mercado en la barra de navegación para borrar los filtros.,"Keine Ergebnisse gefunden. Klicken Sie auf den Markennamen in der Navigationsleiste, um die Filter zu löschen.",Nincs találat. Kattints a piac nevére a navsávban a szűrők törléséhez.,未找到结果。单击导航栏中的市场名称以清除过滤器。,لا توجد نتائج. انقر على اسم السوق في شريط التنقل لإزالة الفلاتر.
L_NOUSER,No such user.,Нет такого пользователя.,Aucune utilisateur.,Este usuario no existe.,Kein solcher Benutzer.,Nincs ilyen felhasználó.,没有这样的用户。,لا يوجد مثل هذا المستخدم.
L_REGED,Registered,Зарегистрированный,Inscrit,Registrado,Eingetragen,Regisztrálva,注册,مسجل
L_LASTSEEN,Last seen,Последние просмотренные,Vue la dernière fois,Ultima vez visto,Zuletzt gesehen,Utoljára,最后一次露面,اخر ظهور
L_TRUST,Trust,Доверять,Confiance,Confianza,Vertrauen,Megbízhatóság,信任,ثقة
L_PUBKEY,Public Key,Открытый ключ,Clé publique,Llave pública,Öffentlicher Schlüssel,Publikus kulcs,公钥,المفتاح العمومي
L_NEW,New,Новый,Nouveau,Nuevo,Neu,Új,新,الجديد
L_TREND,Trending,Трендовых,Tendances,Tendencias,Trend,Trendi,趋势,الشائع
L_CHEAP,Cheap,Дешево,Pas cher,Barato,Billig,Olcsó,廉价,رخيص
L_EXPENSIVE,Expensive,Дорого,Coûteux,Costoso,Teuer,Drága,昂贵,مكلفة
L_BUYER,Buyer,Покупатель,Acheteur,Comprador,Käufer,Vevő,买方,مشتر
L_SELLER,Seller,Продавец,Vendeur,Vendedor,Verkäufer,Eladó,卖家,تاجر
L_SHIPPING,Shipping To,Доставка,Livraison,Envío,Versand nach,Kiszállítás,运到,يشحن إلى
L_ASKSLR,Ask seller,Задать вопрос продавцу,Demande au vendeur,Preguntar al vendedor,Frag den Verkäufer,Kérdezz az eladótól,询问卖家,اسأل البائع
L_DLEFT,%d days left,Осталось %d дней,%d jours restants,Quedan %d dias,%d Tage übrig,Még %d nap,还剩%d天,%d يومًا متبقية
L_CLOSED,CLOSED,ЗАКРЫТО,FERMÉ,CERRADO,GESCHLOSSEN,LEZÁRVA,关闭,مغلق
L_ORDER,Place an Order,Разместить заказ,Commander,Hacer un pedido,Eine Bestellung aufgeben,Megrendelem,下订单,ضع طلبية
L_RATINGS,Ratings,Рейтинги,Évaluations,Calificaciones,Bewertungen,Értékelés,评级,تصنيفات
L_COMMENTS,Comments,Комментарии,commentaires,Comentarios,Bemerkungen,Véleménye,评论,تعليقات
L_MYORD,My Orders,Мои заказы,Mes commandes,Mis ordenes,Meine Bestellungen,Rendeléseim,我的订单,طلباتي
L_PRODUCTS,Products,Товары,Des produits,Productos,Produkte,Termékek,制品,منتجات
L_NORATING,Nobody rated this seller before.,Никто не оценил этого продавца раньше.,Personne n'a évalué ce vendeur avant.,Nadie ha calificado a este vendedor antes.,Niemand hat diesen Verkäufer vorher bewertet.,Még senki nem értékelte ezt az eladót.,之前没有人对此卖家进行评分。,لم يتم تقييم هذا البائع من قبل.
L_NOCOMM,This user has not yet rated anybody.,Этот пользователь еще не оценил никого.,Cet utilisateur n'a pas encore évalué personne.,Este usuario aún no ha calificado a nadie.,Dieser Benutzer hat noch niemanden bewertet.,Ez a felhasználó még nem értékelt senkit.,该用户尚未对任何人进行评级。,لم يقم هذا المستخدم بتقييم أي شخص حتى الآن.
L_NOUPROD,This user has no offers.,У этого пользователя нет предложений.,Cet utilisateur n'a pas d'offres.,Este usuario no tiene ofertas.,Dieser Benutzer hat keine Angebote.,Ennek a felhasználónak nincs ajánlata.,该用户没有优惠。,هذا المستخدم ليس لديه عروض.
L_MYPRODS,My Products,Мои продукты,Mes produits,Mis productos,Meine Produkte,Termékeim,我的产品,منتجاتي
L_NEWPROD,New Product,Новый продукт,Nouveau produit,Nuevo producto,Neues Produkt,Új termék,新产品,منتج جديد
L_CATEGORY,Category,Категория,Catégorie,Categoría,Kategorie,Kategória,类别,الفئة
L_CATEGORIES,Categories,Категории,Les catégories,Categorías,Kategorien,Kategóriák,分类,الاقسام
L_NEWCAT,Add New Category,Добавить новую категорию,Ajouter une nouvelle catégorie,Añadir nueva categoria,Neue Kategorie hinzufügen,Új kategória,添加新类别,إضافة فئة جديدة
L_EDITCAT,Edit Category,Изменить категорию,Modifier la catégorie,Editar categoria,Kategorie bearbeiten,Kategória módosítása,编辑类别,تحرير الفئة
L_SAVE,Save,Сохранить,sauvegarder,Salvar,sparen,Elment,保存,حفظ
L_HELPCAT1,Categories permanently without a product will be automatically removed.,Категории навсегда без продукта будут автоматически удалены.,Les catégories définitivement sans produit seront automatiquement supprimées.,Las categorías permanentemente sin un producto serán eliminadas automáticamente.,Kategorien ohne Produkt werden automatisch entfernt.,"Azok a kategóriák, amikben tartósan nincs termék, automatikusan törlésre kerülnek.",永久没有产品的类别将被自动删除。,سيتم تلقائيًا إزالة الفئات بشكل دائم بدون منتج.
L_HELPCAT2,"You must provide all translations. Use an online translator if you have to, or consider using another, already existing category instead.","Вы должны предоставить все переводы. Используйте онлайн-переводчик, если вам нужно, или вместо этого используйте другую уже существующую категорию.","Vous devez fournir toutes les traductions. Utilisez un traducteur en ligne si vous devez, ou envisagez d'utiliser une autre catégorie déjà existante.","Debes proporcionar todas las traducciones. Use un traductor en línea si tiene que hacerlo, o considere usar otra categoría ya existente en su lugar.","Sie müssen alle Übersetzungen bereitstellen. Verwenden Sie einen Online-Übersetzer, wenn Sie eine andere, bereits vorhandene Kategorie verwenden müssen oder erwägen, stattdessen eine andere zu verwenden.","Minden fordítás kötelező. Ha kell, használj online fordítót, vagy még inkább válassz egy már meglévő kategóriát.",您必须提供所有翻译。如果您必须或考虑使用其他现有类别，请使用在线翻译。,يجب عليك تقديم كل الترجمات. استخدم مترجمًا عبر الإنترنت إذا كنت مضطرًا ، أو تفكر في استخدام فئة أخرى موجودة بالفعل بدلاً من ذلك.
L_ERRCAT,Unable to save category,Не удалось сохранить категорию,Impossible d'enregistrer la catégorie,No se puede guardar la categoría,Die Kategorie konnte nicht gespeichert werden,Nem tudom elmenteni a kategóriát,无法保存类别,غير قادر على حفظ الفئة
L_ERRDEL,Unable to delete some records,Не удалось удалить некоторые записи,Impossible de supprimer certains enregistrements,No se pueden eliminar algunos registros,Einige Datensätze konnten nicht gelöscht werden,Néhány rekordot nem sikerült törölni,无法删除某些记录,غير قادر على حذف بعض السجلات
L_PRODEDIT,Edit Product Profile,Изменить профиль продукта,Modifier le profil du produit,Editar perfil del producto,Produktprofil bearbeiten,Termék adatlap módosítás,编辑产品档案,تحرير ملف تعريف المنتج
L_LOADERR,"Unable to load product, bad signature","Невозможно загрузить продукт, плохая подпись","Impossible de charger le produit, mauvaise signature","No se puede cargar el producto, mala firma","Produkt kann nicht geladen werden, schlechte Signatur","Nem lehet betölteni, hibás hitelesítés",无法加载产品，签名错误,غير قادر على تحميل المنتج ، التوقيع السيئ
L_PRODERR,Unable to save product,Не удалось сохранить продукт,Impossible d'enregistrer le produit,No se puede guardar el producto,Das Produkt konnte nicht gespeichert werden,Nem lehet elmenteni a terméket,无法保存产品,غير قادر على حفظ المنتج
L_PRODERR0,Missing or bad name or description,Отсутствующее или плохое имя или описание,Nom ou description manquant ou incorrect,Falta o mal nombre o descripción,Fehlender oder schlechter Name oder Beschreibung,Hibás vagy hiányzó név vagy leírás,缺少或错误的名称或描述,اسم مفقود أو سيء أو وصف
L_PRODERR1,File missing or not a jpeg,Отсутствует файл или нет jpeg,Fichier manquant ou pas un jpeg,Falta archivo o no es un jpeg,Datei fehlt oder kein JPEG,Nem találom a fájlt vagy nem jpeg,文件丢失或不是jpeg,الملف مفقود أو لا jpeg
L_PRODERR2,Missing or bad type specific field,Отсутствующее или плохое поле типа,Champ spécifique au type manquant ou incorrect,Falta un campo específico de tipo incorrecto,Fehlendes oder falsches spezifisches Feld,Hiányzó vagy hibás típus függő mező,缺少或类型特定的字段,حقل محدد مفقود أو سيئ
L_PRODERR3,Missing shipping to field,Отсутствие доставки в поле,Expédition manquante au champ,Falta envío al campo,Fehlender Versand nach Feld,Hiányzik a kiszállítás,缺少运送到现场,يفتقد شحن إلى مجال
L_ESCROWERR,This node is not configured to handle escrow requests!,Этот узел не настроен для обработки запросов условного депонирования!,Ce nœud n'est pas configuré pour gérer les demandes d'entiercement!,¡Este nodo no está configurado para manejar solicitudes de custodia!,Dieser Knoten ist nicht für die Behandlung von Schief-Anfragen konfiguriert!,Ez a gép nincs felkészítve letét kérések fogadására!,此节点未配置为处理托管请求！,لم يتم تكوين هذه العقدة لمعالجة طلبات الضمان!
L_ESCROWOK,You have configured your daemon to provide Escrow Service for other users.,"Вы настроили своего демона, чтобы предоставить Эскроу для других пользователей.",Vous avez configuré votre démon pour fournir un dépôt fiduciaire à d'autres utilisateurs.,Ha configurado su daemon para proporcionar el depósito a otros usuarios.,"Sie haben Ihren Daemon so konfiguriert, dass andere Benutzer Schief erhalten.",Bekonfiguráltad a démont hogy Letét Szolgáltatást nyújtson másoknak.,您已将守护程序配置为为其他用户提供托管。,لقد قمت بتكوين البرنامج الخاص بك لتوفير الضمان للمستخدمين الآخرين.
L_ESCROWORD,You can't order Escrow directly,Вы не можете заказать Эскроу напрямую,Vous ne pouvez pas commander d'entiercement directement,No puede ordenar el depósito directamente,Sie können Escrow nicht direkt bestellen,Direktben nem vásárolható Escrow,您无法直接订购托管,لا يمكنك طلب الضمان مباشرة
L_NEWORDER,New Order,Новый порядок,Nouvelle commande,Nuevo orden,Neue Ordnung,Új rendelés,新命令,طلب جديد
L_UPDORDER,Order Update,Обновление заказа,Mise à jour de la commande,Actualización de pedidos,Bestellungsaktualisierung,Megrendelés frissítés,订单更新,تحديث الطلب
L_ORDERDET,Order Details,Информация для заказа,détails de la commande,Detalles del pedido,Bestelldetails,Megrendelés részletek,订单详细信息,تفاصيل الطلب
L_ORDERR,Unable to save order,Не удалось сохранить заказ,Impossible de sauvegarder la commande,No se puede guardar el pedido,Die Bestellung konnte nicht gespeichert werden,Nem tudom elmenteni a megrendelést,无法保存订单,غير قادر على حفظ الطلب
L_AUCTIONWRN,This is an auction bid. You have to accept just one of them.,Это аукцион ставок. Вы должны принять только один из них.,Ceci est une offre d'enchères. Vous devez seulement en accepter un.,Se trata de una oferta de la subasta. Sólo tiene que aceptar una de ellas.,Dies ist ein Versteigerungsgebot. Sie müssen nur einen von ihnen akzeptieren.,Ez egy aukciós licitálás. Csak az egyiket kell elfogadnod közülük.,这是拍卖出价。 你只需要接受其中一个。,هذا هو مزاد المزايدة. عليك فقط قبول واحد منهم.
L_ESCERR,Escrow Provider's node hasn't accepted our request,Узел поставщика Эскроу не принял наш запрос,Le nœud du fournisseur d'entiercement n'a pas accepté notre demande,El nodo del Proveedor de Fideicomiso no ha aceptado nuestra solicitud,Der Knoten des Schief-Providers hat unsere Anfrage nicht akzeptiert,A Letét Szolgáltató gépe nem fogadta a kérést,托管提供商的节点尚未接受我们的请求,لم تقبل عقدة موفر الضمان طلبنا
L_NOTRX,"No transaction, should not happen!","Никакой транзакции, не должно быть!","Aucune transaction, ne devrait pas arriver!","¡Ninguna transacción, no debería suceder!","Keine Transaktion, sollte nicht passieren!","Nincs tranzakció, nem szabadna megtörténnie!",没有交易，不应该发生！,أي صفقة ، لا ينبغي أن يحدث!
L_NOBCAST,The buyer was unable to broadcast the transaction.,Покупатель не смог транслировать транзакцию.,L'acheteur n'a pas été en mesure de diffuser la transaction.,El comprador no pudo transmitir la transacción.,Der Käufer konnte die Transaktion nicht übertragen.,A vevő nem tudta kihirdetni a tranzakciót.,买方无法广播该交易。,لم يتمكن المشتري من بث المعاملة.
L_PAYMETHOD,Paymethod,Способ оплаты,Mode de paiement,Método de pago,Zahlungsmethode,Fizmód,付款方法,طريقة الدفع او السداد
L_STATUS,Status,Статус,Statut,Estado,Status,Státusz,状态,الحالة
L_ORDST00,Waiting for approval,Ожидание подтверждения,en attente d'approbation,A la espera de la aprobación,warten auf die Bestätigung,Visszaigazolásra vár,等待批准,بانتظار الموافقة
L_ORDST01,Multisig wallet generation,Генерация кошелька с несколькими сигналами,Génération de portefeuille multi-signature,Billetero multi firma de generación.,Multi-Signatur-Wallet-Generation,Multisig tárca generálás,多签名钱包生成,متعددة جيل المحفظة التوقيع
L_ORDST02,Handled by Escrow Provider,Обработано Поставщиком Эскроу,Manipulé par un fournisseur d'entiercement,Manejado por el proveedor de depósito de garantía,Behandelt von Schief Provider,Letét Szolgáltató kezeli,由托管提供商处理,التعامل مع مزود الضمان
L_ORDST03,Payment required,Требуется оплата,Paiement Requis,Pago requerido,Bezahlung erforderlich,Fizetés szükséges,需要付款,الدفع المطلوبة
L_ORDST04,Waiting for confirmation,Ожидание подтверждения,En attente de confirmation,esperando confirmación,Auf Bestätigung warten,Visszaigazolásra várakozás,等待确认中,في انتظار التأكيد
L_ORDST05,Payment accepted,Платеж принят,Paiement accepté,Pago aceptado,Zahlung akzeptiert,Fizetés elfogadva,支付已被接受,قبول الدفع
L_ORDST06,Tracking,Отслеживание,Suivi,Rastreo,Verfolgung,Követés,跟踪,تتبع
L_ORDST07,Package en route,Пакет в пути,Forfait en route,Paquete en ruta,Paket unterwegs,Csomag úton van,途中包裹,حزمة في الطريق
L_ORDST08,Funds released,Выпущенные средства,Fonds libérés,Fondos liberados,Gelder freigegeben,Kifizetés jóváhagyva,资金发布,الأموال الصادرة
L_ORDST97,Rate the order,Оцените заказ,Noter la commande,Califica la orden,Bewerten Sie die Bestellung,Véleményezd a megrendelést,为订单评分,قيم الطلب
L_CHPAYM,Choose payment method,Выберите способ оплаты,Choisissez le mode de paiement,elige el método de pago,Zahlungsart auswählen,Válassz fizetési módot,选择付款方式,اختر وسيلة الدفع
L_DEPOSIT,Deposit,Депозит,Dépôt,Depositar,Anzahlung,Depozit,存款,الوديعة
L_DIRECT,Direct payment,Прямой платеж,Paiement direct,Pago directo,Direkte Bezahlung,Előre utalás,直接付款,دفع مباشر
L_DONATION,Make a Donation,Сделать пожертвование,Faire un don,Haz una donación,Spenden,Adományozás,做捐献,التبرع
L_BID,Bidding,Торги,Enchère,Ofertas,Gebot,Licitálás,投标,مزايدة
L_HELPPAY0,You're about to send money to the seller directly. Only choose this if you know where they live.,"Вы собираетесь отправить деньги продавцу напрямую. Только выберите это, если вы знаете, где они живут.",Vous êtes sur le point d'envoyer de l'argent directement au vendeur. Ne choisissez ceci que si vous savez où ils habitent.,Estás a punto de enviar dinero al vendedor directamente. Solo elige esto si sabes donde viven.,"Sie sind im Begriff, Geld direkt an den Verkäufer zu senden. Wählen Sie dies nur, wenn Sie wissen, wo sie leben.","Direktben akarsz előre pénzt küldeni. Csak akkor válaszd, ha tudod, hol lakik az eladó.",您即将直接向卖家汇款。如果您知道他们住在哪里，请选择此项。,أنت على وشك إرسال الأموال إلى البائع مباشرة. فقط اختر هذا إذا كنت تعرف المكان الذي يعيشون فيه.
L_HELPPAY1,You pay in advance into a multisig wallet. Seller requires your signature to get the money.,"Вы платите заранее в кошельке с несколькими подписями. Продавцу требуется ваша подпись, чтобы получить деньги.",Vous payez à l'avance dans un portefeuille multi-signature. Le vendeur exige votre signature pour obtenir l'argent.,Usted paga por adelantado en una billetera de firma múltiple. El vendedor requiere su firma para obtener el dinero.,"Sie zahlen im Voraus in ein Multi-Signatur-Portemonnaie. Der Verkäufer benötigt Ihre Unterschrift, um das Geld zu erhalten.","Előre fizetsz egy multisig tárcába. Az eladónak szüksége van az aláírásodra, hogy megkapja a pénzét.",您需要提前支付多个签名钱包。卖方需要您的签名才能获得收益。,تدفع مقدما في محفظة متعددة التوقيع. البائع يتطلب توقيعك للحصول على المال.
L_WAITORD,Waiting for the other party,Ожидание другой стороны,En attendant de l'autre côté,Esperando el otro lado,Warten auf die andere Seite,Várakozás a másik félre,等待对方,في انتظار الجانب الآخر
L_SHPADDR,Shipping Address,Адреса доставки,Adresse de livraison,Dirección de Envío,Lieferanschrift,Kiszállítási cím,收件地址,عنوان الشحن
L_COUNTRY,Country,Страна,Pays,País,Land,Ország,国家,بلد
L_CITY,City,Город,Ville,Ciudad,Stadt,Város,市,مدينة
L_ZIPCODE,ZipCode,Почтовый Индекс,Code postal,Código postal,Postleitzahl,Ir.szám,邮政编码,الرمز البريدي
L_ADDRESS,Address,Адрес,Adresse,Dirección,Adresse,"Utca,házszám",地址,عنوان
L_REQUIRED,This field is required,Это поле обязательно к заполнению,Ce champ est requis,este campo es requerido,Dieses Feld wird benötigt,Kötelező megadni ezt a mezőt,这是必填栏,هذه الخانة مطلوبه
L_NOCONFIRM,This transaction has not yet been confirmed,Эта транзакция еще не подтверждена,Cette transaction n'a pas encore été confirmée,Esta transacción aún no ha sido confirmada.,Diese Transaktion wurde noch nicht bestätigt,Ezt a tranzakciót még nem igazolták vissza,此交易尚未确认,هذه الصفقة لم يتم تأكيدها بعد
L_CONFIRMOK,Transaction has been confirmed %d times,Сделка подтверждена в %d раз,La transaction a été confirmée %d fois.,La transacción ha sido confirmada %d veces,Die Transaktion wurde %d-mal bestätigt,Tranzakció visszaigazolva %d alkalommal,交易已确认%d次,تم تأكيد المعاملة %d مرة
L_VOUT,Which 'vout' 'n' corresponds to the amount and the multisig address?,Какой 'vout' 'n' соответствует сумме и многоуровневому адресу?,Quel 'vout' 'n' correspond au montant et à l'adresse multisig?,¿Qué 'vout' 'n' corresponde a la cantidad y la dirección multisig?,Welches 'vout' 'n' entspricht der Menge und der Multisig-Adresse?,Melyik 'vout' 'n' tartozik az összeghez és a multisig címhez?,哪个'vout''n'对应于金额和多重签名地址？,أي 'vout' 'n' تقابل المبلغ وعنوان التوقيع المتعدد؟
L_PAYOUT,Payout wallet,Кошелек выплат,Portefeuille de paiement,Billetera de pago,Auszahlung Brieftasche,Kifizetés ide,支付钱包,محفظة العوائد
L_PRIORITY,Priority,Приоритет,Priorité,Prioridad,Priorität,Prioritás,优先,أفضلية
L_PRIHIGH,High,Высоко,Haute,Alto,Hoch,Magas,高,متوسط
L_PRINORMAL,Normal,Нормальный,Ordinaire,Normal,Normal,Normál,正常,عادي
L_PRILOW,Low,Низкий,Faible,Bajo,Niedrig,Alacsony,低,منخفض
L_MAKEDON,I'd like to donate to this great software,Я бы хотел пожертвовать этому замечательному программному обеспечению,J'aimerais faire un don à cet excellent logiciel,Me gustaría donar a este gran software.,Ich möchte für diese großartige Software spenden,szeretném támogatni ezt a remek szoftvert,我想捐赠这个优秀的软件,أود التبرع لهذا البرنامج الرائع
L_COMMENT,Comment,Комментарий,Commentaire,Comentario,Kommentar,Megjegyzés,评论,تعليق
L_CONFIRM,Confirm,Подтвердить,Confirmer,Confirmar,Bestätigen,Mehet,确认,تؤكد
L_ACCEPT,Accept,Принимать,Acceptez,Aceptar,Akzeptieren,Elfogad,接受,قبول
L_DECLINE,Decline,Снижение,Déclin,Disminución,Ablehnen,Elutasít,下降,انخفاض
L_MULTISIG,Multisig wallet address,Многоязычный адрес кошелька,Adresse du portefeuille Multisig,Dirección billetera multisig.,Multisig Brieftasche Adresse,Multisig tárcacím,多个签名钱包地址,عنوان المحفظة متعددة التوقيع
L_PAY,Pay,Платить,Payer,Paga,Zahlen,Kifizetés,工资,دفع
L_RECEIVED,Package received,Полученный пакет,Colis reçu,paquete recibido,Paket erhalten,Megérkezett a csomag,收到包裹,تم استلام الطرد
L_BROADCAST,Broadcast transaction,Трансляция транзакций,Transaction de diffusion,Transacción de difusión,Übertragungsvorgang,Tranzakció kihirdetése,广播交易,معاملة البث
L_CONTINUE,Continue,Продолжить,Continuer,Continuar,Fortsetzen,Folytatás,继续,استمر
L_SGNTRX,Signed transaction,Подписанная транзакция,Transaction signée,Transacción firmada,Signierte Transaktion,Aláírt tranzakció,签署交易,صفقة موقعة
L_BEST,Best,Лучший,Meilleur,Mejor,Beste,Kifogástalan,最好,الأفضل
L_AVG,Average,Средний,Moyenne,Promedio,Durchschnittlich,Átlagos,平均,معدل
L_WORST,Worst,Наихудший,Pire,Peor,Am schlimmsten,Legrosszabb,最差,أسوأ
L_HELPCMD,Issue the following commands in your wallet application's console,Выполните следующие команды в консоли приложения кошелька,Émettez les commandes suivantes dans la console de votre application portefeuille,Ejecute los siguientes comandos en la consola de su aplicación de billetera,Geben Sie die folgenden Befehle in der Konsole Ihrer Wallet-Anwendung aus,Add ki a következő parancsokat a tárcaalkalmazásod konzolján,在钱包应用程序的控制台中发出以下命令,أصدر الأوامر التالية في وحدة تحكم تطبيق المحفظة
L_HLPCMD00,"You can use your existing wallet, but it's recommended to create a new one (ADDRESS).","Вы можете использовать свой существующий кошелек, но рекомендуется создать новый (ADDRESS).","Vous pouvez utiliser votre portefeuille existant, mais il est recommandé d'en créer un nouveau (ADDRESS).","Puede usar su billetera existente, pero se recomienda crear una nueva (ADDRESS).","Sie können Ihre vorhandene Brieftasche verwenden, es wird jedoch empfohlen, eine neue Brieftasche zu erstellen (ADDRESS).","Használhatod a meglévő tárcád, de javasolt inkább újat generálni (ADDRESS).",您可以使用现有的钱包，但建议您创建一个新的钱包（ADDRESS）。,يمكنك استخدام محفظتك الحالية ، ولكن يُنصح بإنشاء محفظة جديدة (ADDRESS).
L_HLPCMD00a,"Look for the line 'pubkey', and copy that here.",Найдите строку «pubkey» и скопируйте ее здесь.,Recherchez la ligne 'pubkey' et copiez-la ici.,"Busque la línea 'pubkey', y copie eso aquí.",Suchen Sie nach der Zeile 'Pubkey' und kopieren Sie das hier.,"Keresd a 'pubkey' sort, onnan kell idemásolni.",查找“pubkey”行，并在此处复制。,ابحث عن السطر 'pubkey' ، وانسخه هنا.
L_HLPCMD01,"Get a pubkey for your wallet, then create a multisig wallet with that and the seller's pubkey.","Получите паблик для своего кошелька, а затем создайте многосегментный кошелек с этим и в брокером продавца.","Procurez-vous un pubkey pour votre portefeuille, puis créez un portefeuille multisig avec cela et le pubkey du vendeur.","Obtenga un pubkey para su billetera, luego cree un billetera multisig con eso y con el pubkey del vendedor.",Holen Sie sich einen Pubkey für Ihr Portemonnaie und erstellen Sie anschließend eine Multisig Wallet mit diesem und dem Pubkey des Verkäufers.,"Ha megvan a tárcád pubkulcsa, használd azt és az eladó pubkulcsát egy multisg tárca létrehozásához.",获取钱包的一个pubkey，然后用它和卖家的pubkey创建一个多重签名钱包。,الحصول على pubkey لمحفظتك ، ثم إنشاء محفظة متعددة التوقيع مع ذلك والحانة البائع.
L_HLPCMD02,Press this button if you want to pay from your default wallet.,"Нажмите эту кнопку, если вы хотите оплатить свой кошелек по умолчанию.",Appuyez sur ce bouton si vous souhaitez payer avec votre portefeuille par défaut.,Presione este botón si desea pagar desde su billetera predeterminada.,"Drücken Sie diese Taste, wenn Sie aus Ihrer Standard-Brieftasche bezahlen möchten.","Használd ezt gombot, ha az alapértelmezett tárcádból akarsz fizetni.",如果您想从默认钱包中付款，请按此按钮。,اضغط على هذا الزر إذا كنت تريد الدفع من محفظتك الافتراضية.
L_HLPCMD02a,Otherwise scan the QRcode or issue this command to your wallet application's console and copy back the result,В противном случае сканируйте QR-код или выполните эту команду на консоли приложения кошелька и скопируйте результат,"Sinon, scannez le QRcode ou lancez cette commande sur la console de votre application portefeuille et recopiez le résultat.","De lo contrario, escanee el código QR o emita este comando en la consola de su aplicación de billetera y copie el resultado",Andernfalls scannen Sie den QRcode oder geben Sie diesen Befehl an die Konsole Ihrer Wallet-Anwendung aus und kopieren Sie das Ergebnis zurück,"Egyébként szkenneld be a QR kódot vagy add ki az alábbi parancsot a tárcaalkalmazásod konzoljába, és másold vissza az eredményt",否则扫描QRcode或将此命令发送到钱包应用程序的控制台并复制结果,خلاف ذلك مسح QRcode أو إصدار هذا الأمر إلى وحدة تحكم التطبيق الخاص بك المحفظة ونسخ النتيجة مرة أخرى
L_HLPCMD04,You can manually verify the transaction with this command,Вы можете вручную проверить транзакцию с помощью этой команды,Vous pouvez vérifier manuellement la transaction avec cette commande,Puedes verificar manualmente la transacción con este comando,Sie können die Transaktion mit diesem Befehl manuell überprüfen,Ezzel paranccsal leellenőrizheted a tranzakciót,您可以使用此命令手动验证事务,يمكنك التحقق من المعاملة باستخدام هذا الأمر يدويًا
L_HLPCMD05,"You must sign the payout transaction, broadcast and copy the result back here","Вы должны подписать транзакцию выплаты, транслировать и копировать результат назад","Vous devez signer la transaction de paiement, diffuser et copier le résultat ici","Debe firmar la transacción de pago, transmitir y copiar el resultado de nuevo aquí","Sie müssen die Auszahlungstransaktion unterschreiben, übertragen und das Ergebnis zurückkopieren","Alá kell írnod a kifizetési tranzakciót, kihirdetned, és az eredményt visszamásolnod ide",您必须在此处签署支付交易，广播并复制结果,يجب عليك توقيع معاملة العائد والبث ونسخ النتيجة مرة أخرى هنا
L_HLPCMD97,Give an overall score including the seller's attitude and the quality of the merchandise,"Дайте общий балл, включая отношение продавца и качество товара",Donner un score global incluant l'attitude du vendeur et la qualité de la marchandise,Dar una puntuación global que incluya la actitud del vendedor y la calidad de la mercancía,"Geben Sie eine Gesamtpunktzahl an, die die Einstellung des Verkäufers und die Qualität der Ware beinhaltet","Adj egy összesített véleményt, beleértve az eladó hozzáállását és a kiszállított termék minőségét",给出总体评分，包括卖家的态度和商品的质量,إعطاء درجة شاملة بما في ذلك موقف البائع وجودة البضائع
L_HLPSHP,"Send the purchased item to the given shipping address, and copy here a delivery identifier (more preferably an URL) which the buyer can use to track the package. Remember, you won't get your money if they don't receive the package.","Отправьте купленный товар на указанный адрес доставки и скопируйте здесь идентификатор доставки (более предпочтительно URL), который покупатель может использовать для отслеживания пакета. Помните, что вы не получите ваши деньги, если они не получат пакет.",Envoyez l'article acheté à l'adresse de livraison indiquée et copiez ici un identifiant de livraison (de préférence une URL) que l'acheteur peut utiliser pour suivre le colis. N'oubliez pas que vous n'obtiendrez pas votre argent s'ils ne reçoivent pas le colis.,"Envíe el artículo comprado a la dirección de envío dada y copie aquí un identificador de entrega (más preferiblemente una URL) que el comprador puede usar para rastrear el paquete. Recuerde, no recibirá su dinero si no reciben el paquete.","Senden Sie den gekauften Artikel an die angegebene Lieferadresse und kopieren Sie hier eine Lieferungskennung (vorzugsweise eine URL), mit der der Käufer das Paket verfolgen kann. Denken Sie daran, dass Sie Ihr Geld nicht bekommen, wenn Sie das Paket nicht erhalten.","Add fel a megvásárolt terméket a megadott kiszállítási címre, és másold ide a küldemény azonosítót (méginkább URLt), amivel a vevő követheti a csomagot. Ne feledd, csak akkor jutsz a pénzedhez, ha a csomag megérkezik.",将购买的物品发送到给定的运送地址，并在此处复制买方可用于跟踪包裹的递送标识符（更优选地是URL）。请记住，如果他们没有收到包裹，你就不会得到你的钱。,أرسل العنصر الذي تم شراؤه إلى عنوان الشحن المحدد ، وانسخ هنا مُعرّف تسليم (يُفضل أن يكون عنوان URL) والذي يمكن للمشتري استخدامه لتتبع الحزمة. تذكر ، أنك لن تحصل على أموالك إذا لم تحصل على الحزمة.
L_DLURL,Download URL,Загрузить URL-адрес,URL de téléchargement,Descargar URL,URL herunterladen,Letöltési URL cím,下载网址,تنزيل عنوان URL
L_WRNCMD,"This would be done automatically for you, should you have configured the wallet daemon","Это будет сделано автоматически для вас, если вы настроили демона кошелька","Cela se ferait automatiquement pour vous, si vous avez configuré le démon portefeuille","Esto se haría automáticamente por usted, en caso de que haya configurado el demonio de cartera.","Dies wäre automatisch für Sie erledigt, falls Sie den Wallet Daemon konfiguriert haben","Ez a lépés automatikus lenne, ha beűllítottad volna a tárcadémont",如果您配置了钱包守护程序，这将自动为您完成,سيتم إجراء ذلك تلقائيًا نيابةً عنك ، إذا قمت بتكوين خادم المحفظ
L_INVPRICE,Invalid price,Недействительная цена,Prix ​​invalide,Precio inválido,Ungültiger Preis,Érvénytelen ár,价格无效,سعر غير صالح
L_INVBUYER,You can't order your own product!,Вы не можете заказать свой собственный продукт!,Vous ne pouvez pas commander votre propre produit!,¡No puedes pedir tu propio producto!,Sie können Ihr eigenes Produkt nicht bestellen!,Nem rendelheted meg a saját terméked!,你不能订购自己的产品！,لا يمكنك طلب المنتج الخاص بك!
L_NOORDER,You have no orders for this product.,У вас нет заказов на этот товар.,Vous n'avez aucune commande pour ce produit.,No tienes pedidos para este producto.,Sie haben keine Bestellungen für dieses Produkt.,Nincs rendelésed erre a termékre.,您没有订购此产品。,ليس لديك أي طلبات لهذا المنتج.
L_SOLD,Sold,Продано,Vendu,Vendido,Verkauft,Eladva,出售,تم البيع
L_MODIFYD,Modified,Модифицированный,Modifié,Modificado,Geändert,Módosítva,改性,تم التعديل
L_CREATED,Created,Созданный,Créé,Creado,Erstellt,Létrehozva,创建,خلقت
L_TYPE,Type,Тип,Type,Tipo,Typ,Típus,类型,نوع
L_NAME,Name,Название,Prénom,Nombre,Name,Név,名称,اسم
L_PICTURE,Picture,Картина,Image,Imagen,Bild,Kép,图片,صورة
L_DESC,Description,Описание,La description,Descripción,Beschreibung,Leírás,描述,وصف
L_PRICES,Prices,Цены,Des prix,Precios,Preise,Árak,价格,الأسعار
L_HELPNAME,Please fill in as many languages as you can. Use an online translator if you have to.,"Пожалуйста, заполните как можно больше языков. Используйте онлайн-переводчик, если вам нужно.",S'il vous plaît remplir autant de langues que vous pouvez. Utilisez un traducteur en ligne si vous devez.,Por favor complete tantos idiomas como pueda. Utilice un traductor en línea si tiene que hacerlo.,"Bitte füllen Sie so viele Sprachen wie möglich aus. Verwenden Sie einen Online-Übersetzer, wenn Sie müssen.","Kérlek adj meg annyi fordítást, amennyit csak tudsz. Használj online fordítót, ahol szükséges.",请尽可能多地填写语言。如果必要，请使用在线翻译。,يرجى ملء أكبر عدد ممكن من اللغات. استخدم مترجمًا عبر الإنترنت إذا كنت تريد ذلك.
L_HELPUPL,Only for replacing image. Copy'n'paste a LOCAL jpeg file's path. Drag'n'drop should work too.,Только для замены изображения. Copy'n'paste путь локального файла jpeg. Drag'n'drop тоже должен работать.,Seulement pour remplacer l'image. Copiez et collez le chemin d'un fichier jpeg LOCAL. Drag'n'drop devrait fonctionner aussi.,Solo para reemplazar la imagen. Copiar y pegar la ruta de un archivo jpeg local. Drag'n'drop también debería funcionar.,Nur zum Ersetzen des Bildes. Kopieren Sie den Pfad einer LOKALEN JPEG-Datei nicht. Drag'n'Drop sollte auch funktionieren.,"Csak ha le akarod cserélni a képet. Másold ide egy HELYI jpeg fájl elérési útját. Mennie kell annak is, hogy ráhúzod a képet.",仅用于替换图像。 Copy'n'paste一个本地jpeg文件的路径。 Drag'n'drop也应该有效。,فقط لاستبدال الصورة. Copy'n'paste مسار ملف jpeg المحلي. يجب أن تعمل Drag'n'drop أيضًا.
L_ISPUBLIC,show on browse only nodes,показать только узлы просмотра,afficher uniquement les nœuds de navigation,Mostrar solo los nodos de navegación,show on nur Knoten durchsuchen,megjelenítés csak böngészhető gépeken,在仅浏览节点上显示,تظهر على تصفح العقد فقط
L_HELPISP,"If you don't check this box, then only logged in users will see your offer.","Если вы не установите этот флажок, то только зарегистрированные пользователи будут видеть ваше предложение.","Si vous ne cochez pas cette case, seuls les utilisateurs connectés verront votre offre.","Si no marca esta casilla, solo los usuarios registrados verán su oferta.","Wenn Sie dieses Kontrollkästchen nicht aktivieren, sehen nur angemeldete Benutzer Ihr Angebot.","Ha nem jelölöd be, akkor csak bejelentkezett felhasználók láthatják a hirdetésed.",如果您不选中此框，则只有登录的用户才能看到您的优惠。,إذا لم تحدد هذا المربع ، فسيشاهد المستخدمون الذين شاهدوا دخولهم فقط عرضك.
L_NEEDSHIP,Needs a shipping address,Требуется адрес доставки,Besoin d'une adresse de livraison,Necesita una dirección de envío,Braucht eine Lieferadresse,Kiszállítási címet igényel,需要送货地址,يحتاج إلى عنوان الشحن
L_CURRENCY,Currency,Валюта,Devise,Moneda,Währung,Pénznem,货币,دقة
L_PRODTYP0,Item,Вещь,Article,ít,Artikel,Egyvalami,项目,بند
L_PRODTYP1,Product,Товар,Produit,Producto,Produkt,Termék,产品,المنتج
L_PRODTYP2,Crowdfunding,Краудфандинг,Crowdfunding,Crowdfunding,Crowdfunding,Közgyűjtés,众筹,تمويل الجماعي
L_PRODTYP3,Auction,Аукцион,Enchères,Subasta,Versteigerung,Aukció,拍卖,مزاد علني
L_PRODTYP4,Escrow,Эскроу,Escroc,Fideicomiso,Schief,Letét,第三方托管,الضمان
L_HELPTYP0,You have a unique item that you sell for a fixed price. Only one order possible.,"У вас есть уникальный предмет, который вы продаете по фиксированной цене. Возможно только один заказ.",Vous vendez un article unique à un prix fixe. Une seule commande possible.,Tienes un artículo único que vendes por un precio fijo. Sólo una orden posible.,"Sie haben einen einzigartigen Artikel, den Sie zu einem festen Preis verkaufen. Nur eine Bestellung möglich.","Van egy egyedi dolgod, amit fix áron kínálsz. Csak egy megrendelést lehet leadni rá.",您有一个以固定价格出售的独特商品。只有一个订单可能。,لديك عنصر فريد تبيعه بسعر ثابت. أمر واحد فقط ممكن.
L_HELPTYP1,"Most common, you produce a product which you sell at fixed price. Buyers can order multiple times.","Чаще всего вы производите продукт, который вы продаете по фиксированной цене. Покупатели могут заказать несколько раз.","Le plus souvent, vous fabriquez un produit que vous vendez à prix fixe. Les acheteurs peuvent commander plusieurs fois.","Más común, usted produce un producto que vende a un precio fijo. Los compradores pueden ordenar varias veces.","Am häufigsten produzieren Sie ein Produkt, das Sie zu einem festen Preis verkaufen. Käufer können mehrere Male bestellen.","Leggyakoribb, előállítasz egy terméket, amit fix összegért kínálsz. A vevők több rendelést is leadhatnak rá.",最常见的是，您生产的产品是以固定价格出售的。买家可以多次订购。,الأكثر شيوعًا ، أنت تنتج منتجًا تبيعه بسعر ثابت. يمكن للمشترين طلب عدة مرات.
L_HELPTYP2,"You provide a donation wallet address and a target amount. When limit reached, the item is removed.","Вы предоставляете адрес кошелька пожертвования и целевую сумму. Когда предел достигнут, элемент будет удален.","Vous fournissez une adresse de portefeuille de dons et un montant cible. Lorsque la limite est atteinte, l'élément est supprimé.","Usted proporciona una dirección de billetera de donación y una cantidad objetivo. Cuando se alcanza el límite, el elemento se elimina.","Sie geben eine Brieftaschenadresse und einen Zielbetrag an. Wenn das Limit erreicht ist, wird das Objekt entfernt.","Megadsz egy adomány tárcacímet és egy célösszeget. Amikor az összeget eléri, a tétel törlődik.",您提供捐款钱包地址和目标金额。达到限制时，将删除该项目。,أنت تقدم عنوان محفظة التبرعات ومبلغ مستهدف. عندما يتم الوصول إلى الحد ، تتم إزالة العنصر.
L_HELPTYP3,You specify a starting price for an item. Bid is on until the target met or the deadline occurs. Only one order possible.,"Вы указываете стартовую цену для товара. Ставка действует до тех пор, пока не будет достигнута цель или не будет установлен крайний срок. Возможно только один заказ.",Vous spécifiez un prix de départ pour un article. L'offre est ouverte jusqu'à ce que l'objectif soit atteint ou que la date limite soit respectée. Une seule commande possible.,Usted especifica un precio inicial para un artículo. La oferta está activa hasta que se cumpla el objetivo o se produzca la fecha límite. Sólo una orden posible.,"Sie geben einen Startpreis für einen Artikel an. Das Gebot ist aktiviert, bis das Ziel erreicht wurde oder die Frist abgelaufen ist. Nur eine Bestellung möglich.","Egy egyedi tételre adsz induló árat, célösszeget és egy határidőt, a vevők licitálnak. Csak egyszer rendelhető.",您指定商品的起始价格。出价一直持续到达到目标或截止日期为止。只有一个订单可能。,قمت بتحديد سعر بداية لأحد العناصر. يبدأ العرض حتى يتحقق الهدف أو يحدث الموعد النهائي. أمر واحد فقط ممكن.
L_HELPTYP4,"Escrow provides 2-of-3 multisig wallets, where an arbitrator can decide disputes for an extra fee.","Эскроу предоставляет 2 из 3 мультисигменных кошельков, где арбитр может решать споры за дополнительную плату.","Escroc fournit 2 portefeuilles multisig sur 3, dans lesquels un arbitre peut trancher des différends moyennant des frais supplémentaires.","Fideicomiso proporciona 2 de las 3 carteras multisig, donde un árbitro puede resolver disputas por una tarifa adicional.","Schief bietet 2-von-3-Multisig-Wallets, bei denen ein Schiedsrichter gegen eine zusätzliche Gebühr entscheiden kann.","A letét 2-a-3-ból multisig tárcát kínál, ahol egy harmadik fél dönti el a vitás kérdéseket plusz díj fejében.",托管提供2个3中的多个钱包，仲裁员可以通过额外费用决定纠纷。,يوفر الضمان 2 من 3 محافظ متعددة التوقيع ، حيث يمكن للحكم أن يقرر النزاعات مقابل رسوم إضافية.
L_HELPSHP,By default corresponding country lists are collapsed. Uncheck continent to specify individual countries.,"По умолчанию соответствующие списки стран сбрасываются. Снимите отметку с континента, чтобы указать отдельные страны.","Par défaut, les listes de pays correspondantes sont réduites. Décochez continent pour spécifier des pays individuels.",Por defecto las listas de países correspondientes están colapsadas. Desmarque continente para especificar países individuales.,"Standardmäßig sind die entsprechenden Länderlisten ausgeblendet. Deaktivieren Sie Kontinent, um einzelne Länder anzugeben.","Alapból a vonatkozó országlisták be vannak csukva. Vedd le a jelölést a kontinensről, hogy az országokat külön-külön is megadhasd.",默认情况下，折叠相应的国家/地区列表取消选中大陆以指定各个国家/地区。,افتراضيًا ، يتم طي قوائم البلد المقابلة. قم بإلغاء تحديد القارة لتحديد البلدان الفردية.
L_PRICE,Price,Цена,Prix,Precio,Preis,Ár,价钱,السعر
L_VERSION,Version,Вариант,Version,Versión,Modell,Változat,版,الإصدار
L_TARGET,Target Price,Целевая цена,Prix ​​cible,Precio objetivo,Zielpreis,Célár,目标价,السعر المستهدف
L_WALLET,Wallet,Бумажник,Portefeuille,Billetera,Brieftasche,Tárca,钱包,محفظة نقود
L_DEADLINE,Deadline,Крайний срок,Date limite,Fecha tope,Frist,Határidő,最后期限,الموعد النهائي
L_START,Starting Price,Стартовая цена,Prix ​​de départ,Precio inicial,Startpreis,Kikiáltási ár,起始价,ابتداء من السعر
L_ERRMEM,Out of memory,Недостаточно памяти,Mémoire insuffisante,Sin memoria,Nicht genügend Speicher,Nincs elég memória,内存不足,خارج الذاكرة
L_ERRWALLET,Insufficient funds,Недостаточно средств,Fonds insuffisants,Fondos insuficientes,Unzureichende Mittel,Nincs elég fedezet,不充足的资金,رصيد غير كاف
L_ERRADDR,Invalid address or key,Недействительный адрес или ключ,Adresse ou clé invalide,Dirección o clave no válida,Ungültige Adresse oder Schlüssel,Érvénytelen cím vagy kulcs,地址或密钥无效,عنوان أو مفتاح غير صالح
L_ERRTRERR,Transaction error,Ошибка транзакции,Erreur de transaction,Error de transacción,Transaktionsfehler,Tranzakciós hiba,交易错误,خطأ المعاملات
L_ERRTRREJ,Transaction rejected by network,"Транзакция, отклоненная сетью",Transaction refusée par le réseau,Transacción rechazada por la red.,Transaktion wurde vom Netzwerk abgelehnt,Tranakció elutasítva a hálózatról,交易被网络拒绝,تم رفض المعاملة بواسطة الشبكة
L_CATTYPE0,Digital,Цифровой,Digital,Digital,Digital,Digitális,数字,رقمي
L_CATTYPE1,Physical,Физический,Physique,Físico,Physisch,Anyagi,物理,جسدي - بدني
L_CATTYPE2,Service,Обслуживание,Service,Servicio,Bedienung,Szolgáltatás,服务,الخدمات
L_CONTWW,WorldWide,По всему миру,À l'échelle mondiale,En todo el mundo,Weltweit,Világszerte,全世界,في جميع أنحاء العالم
L_CONTAF,Africa,Африка,Afrique,África,Afrika,Afrika,非洲,أفريقيا
L_CONTAN,Antarctica,Антарктида,Antarctique,Antártida,Antarktis,Antarktika,南极洲,القارة القطبية الجنوبية
L_CONTAS,Asia,Азия,Asie,Asia,Asien,Ázsia,亚洲,آسيا
L_CONTEU,Europe,Европа,L'Europe,Europa,Europa,Európa,欧洲,أوروبا
L_CONTOC,Oceania,Океания,Océanie,Oceanía,Ozeanien,Óceánia,大洋洲,أوقيانوسيا
L_CONTNA,North America,Северная Америка,Amérique du Nord,Norteamérica,Nordamerika,Észak-Amerika,北美,شمال امريكا
L_CONTSA,South America,Южная Америка,Amérique du Sud,Sudamerica,Südamerika,Dél-Amerika,南美洲,جنوب امريكا
L_CONTUS,United States Of America,Соединенные Штаты Америки,Les États-Unis d'Amérique,Estados Unidos de America,Vereinigte Staaten von Amerika,Amerikai Egyesült Államok,美国,الولايات المتحدة الامريكية
